…
``` r
nodes <- edges %>%
  st_coordinates() %>%
  as_tibble() %>%
  rename(edgeID = L1) %>%
  group_by(edgeID) %>%
  slice(c(1, n())) %>%
  ungroup() %>%
  mutate(start_end = rep(c('start', 'end'), times = n()/2))

nodes
```

    ## # A tibble: 9,346 x 4
    ##        X     Y edgeID start_end
    ##    <dbl> <dbl>  <dbl> <chr>    
    ##  1  7.63  52.0      1 start    
    ##  2  7.63  52.0      1 end      
    ##  3  7.62  52.0      2 start    
    ##  4  7.63  52.0      2 end      
    ##  5  7.63  52.0      3 start    
    ##  6  7.63  52.0      3 end      
    ##  7  7.63  52.0      4 start    
    ##  8  7.63  52.0      4 end      
    ##  9  7.63  52.0      5 start    
    ## 10  7.63  52.0      5 end      
    ## # … with 9,336 more rows
…
``` r
nodes <- nodes %>%
  mutate(xy = paste(.$X, .$Y)) %>% 
  mutate(nodeID = group_indices(., factor(xy, levels = unique(xy)))) %>%
  select(-xy)

nodes
```

    ## # A tibble: 9,346 x 5
    ##        X     Y edgeID start_end nodeID
    ##    <dbl> <dbl>  <dbl> <chr>      <int>
    ##  1  7.63  52.0      1 start          1
    ##  2  7.63  52.0      1 end            2
    ##  3  7.62  52.0      2 start          3
    ##  4  7.63  52.0      2 end            1
    ##  5  7.63  52.0      3 start          4
    ##  6  7.63  52.0      3 end            5
    ##  7  7.63  52.0      4 start          6
    ##  8  7.63  52.0      4 end            7
    ##  9  7.63  52.0      5 start          5
    ## 10  7.63  52.0      5 end            6
    ## # … with 9,336 more rows
…
nodes
```

    ## Simple feature collection with 3322 features and 1 field
    ## geometry type:  POINT
    ## dimension:      XY
    ## bbox:           xmin: 7.601942 ymin: 51.94823 xmax: 7.645597 ymax: 51.97241
    ## epsg (SRID):    4326
    ## proj4string:    +proj=longlat +datum=WGS84 +no_defs
    ## # A tibble: 3,322 x 2
    ##    nodeID            geometry
    ##     <int>         <POINT [°]>
    ##  1      1 (7.625074 51.95564)
    ##  2      2 (7.625275 51.95566)
    ##  3      3 (7.624554 51.95561)
    ##  4      4 (7.626498 51.95617)
    ##  5      5  (7.626103 51.9561)
    ##  6      6 (7.625926 51.95595)
    ##  7      7 (7.625906 51.95573)
    ##  8      8 (7.630898 51.95573)
    ##  9      9  (7.63084 51.95567)
    ## 10     10  (7.63048 51.95524)
    ## # … with 3,312 more rows
…
